<svg width="46" height="46" viewBox="0 0 46 46" fill="none" xmlns="http://www.w3.org/2000/svg">
<path d="M33 28.2499C33 28.6665 32.8767 29.0526 32.6791 29.3923L26.3643 22.6802L32.6106 17.4885C32.8536 17.8548 33 18.2851 33 18.7501V28.2499ZM23 23.8989L31.6916 16.6742C31.335 16.4888 30.9333 16.375 30.5001 16.375H15.5C15.0662 16.375 14.6644 16.4888 14.3092 16.6742L23 23.8989ZM25.4232 23.4619L23.4113 25.1352C23.2936 25.2326 23.1471 25.2813 23 25.2813C22.8529 25.2813 22.7063 25.2326 22.5887 25.1352L20.5763 23.4618L14.1816 30.2597C14.5649 30.4881 15.0141 30.625 15.4999 30.625H30.5001C30.9858 30.625 31.4352 30.4881 31.8184 30.2597L25.4232 23.4619ZM13.3894 17.4884C13.1465 17.8548 13 18.2851 13 18.7501V28.25C13 28.6665 13.1228 29.0526 13.3211 29.3924L19.6351 22.6791L13.3894 17.4884Z" fill="white"/>
<g filter="url(#filter0_d)">
<circle cx="23" cy="23" r="17" stroke="#DFB13B" stroke-width="2"/>
</g>
<defs>
<filter id="filter0_d" x="0" y="0" width="46" height="46" filterUnits="userSpaceOnUse" color-interpolation-filters="sRGB">
<feFlood flood-opacity="0" result="BackgroundImageFix"/>
<feColorMatrix in="SourceAlpha" type="matrix" values="0 0 0 0 0 0 0 0 0 0 0 0 0 0 0 0 0 0 127 0"/>
<feOffset/>
<feGaussianBlur stdDeviation="2.5"/>
<feColorMatrix type="matrix" values="0 0 0 0 0 0 0 0 0 0 0 0 0 0 0 0 0 0 0.25 0"/>
<feBlend mode="normal" in2="BackgroundImageFix" result="effect1_dropShadow"/>
<feBlend mode="normal" in="SourceGraphic" in2="effect1_dropShadow" result="shape"/>
</filter>
</defs>
</svg>
